>>> 2017-11-22 10:23:21.902776
>>> 2017-11-22 10:23:21.902776
>>> 2017-11-22 10:23:21.903006
>>> 2017-11-22 10:23:21.907162
>>> 2017-11-22 10:23:21.976925
>>> 2017-11-22 10:23:21.976925
>>> 2017-11-22 10:32:00.025662
>>> 2017-11-22 10:33:00.057322
>>> 2017-11-22 10:34:00.008915
